…
# Preparing data for analysis with the R package treeplyr.
We will use data from the Species 360 database of normal animal reference ranges for a variety of 
traits (formerly known as the International Species Information System = ISIS). The data file has
been slightly modified here, but the original data file is available at: 
http://www2.isis.org/support/MEDARKS/Pages/Reference%20Ranges.aspx

```r
sp360 <- readRDS("../data/species360.rds")
tbl_df(sp360)
```

```
## # A tibble: 2,299 x 259
##                    SPECIES ALANINEAMINOTRANSFERASE ALBUMIN_COLORIMETRY
##                      <chr>                   <dbl>               <dbl>
## 1           Aburria_pipile                      13                 1.5
## 2         Acanthis_flammea                     NaN                 NaN
## 3     Acanthochelys_spixii                      10                 NaN
## 4  Acanthophis_antarcticus                     NaN                 NaN
## 5   Acanthosaura_crucigera                     NaN                 1.2
## 6       Accipiter_cooperii                      52                 1.4
## 7          Aceros_cassidix                      40                 1.8
## 8        Aceros_corrugatus                      27                 1.7
## 9     Aceros_leucocephalus                     NaN                 1.9
## 10        Acinonyx_jubatus                     103                 3.5
## # ... with 2,289 more rows, and 256 more variables:
## #   ALBUMIN_ELECTROPHORESIS <dbl>, ALKALINEPHOSPHATASE <dbl>,
## #   ALPHA1GLOBULIN_ELECTROPHORESIS <dbl>,
## #   ALPHA2GLOBULIN_ELECTROPHORESIS <dbl>,
## #   ALPHAGLOBULIN_ELECTROPHORESIS <dbl>, AMYLASE <dbl>,
## #   ASPARTATEAMINOTRANSFERASE <dbl>, AZUROPHILS <dbl>, BASOPHILS <dbl>,
## #   BETAGLOBULIN_ELECTROPHORESIS <dbl>, BICARBONATE <dbl>,
## #   BLOODUREANITROGEN <dbl>, BodyTemperature <dbl>, CALCIUM <dbl>,
## #   CARBONDIOXIDE <dbl>, CHLORIDE <dbl>, CHOLESTEROL <dbl>,
…
```
## $phy 
## 
## Phylogenetic tree with 204 tips and 203 internal nodes.
## 
## Tip labels:
## 	Ornithorhynchus_anatinus, Tachyglossus_aculeatus, Myrmecophaga_tridactyla, Tamandua_tetradactyla, Choloepus_didactylus, Tolypeutes_matacus, ...
## 
## Rooted; includes branch lengths.
## 
## $dat 
## # A tibble: 204 x 6
##       TbK TbK.SD     N    lnMass lnGlucose        ME
##     <dbl>  <dbl> <int>     <dbl>     <dbl>     <dbl>
## 1  305.15    0.0     1 0.4134333  4.007333 0.9387255
## 2  305.15    0.0     1 1.3840418  4.430817 0.9387255
## 3  306.75    0.9    42 3.8950803  4.234107 0.1388730
## 4  307.55    0.9    30 1.7606127  4.543295 0.1643168
## 5  306.55    1.0    59 1.9942921  4.174387 0.1301889
## 6  306.15    0.7    29 0.2956502  4.262680 0.1299867
## 7  309.75    1.2   106 1.2490418  4.644391 0.1165543
## 8  309.15    0.8     4 6.7344727  4.488636 0.4000000
## 9  309.15    0.0     1 5.9380638  4.454347 0.9387255
## 10 310.45    0.9    64 3.4068481  4.700480 0.1125000
## # ... with 194 more rows
```
…
